<svg xmlns="http://www.w3.org/2000/svg" xmlns:xlink="http://www.w3.org/1999/xlink" width="279" height="258" viewBox="0 0 279 258">
  <defs>
    <filter id="Rectangle_334" x="0" y="0" width="279" height="258" filterUnits="userSpaceOnUse">
      <feOffset dy="3" input="SourceAlpha"/>
      <feGaussianBlur stdDeviation="3" result="blur"/>
      <feFlood flood-opacity="0.161"/>
      <feComposite operator="in" in2="blur"/>
      <feComposite in="SourceGraphic"/>
    </filter>
  </defs>
  <g id="Group_103" data-name="Group 103" transform="translate(-569 -420)">
    <g id="Group_75" data-name="Group 75" transform="translate(8 -61)">
      <g transform="matrix(1, 0, 0, 1, 561, 481)" filter="url(#Rectangle_334)">
        <rect id="Rectangle_334-2" data-name="Rectangle 334" width="261" height="240" rx="6" transform="translate(9 6)" fill="#fff"/>
      </g>
      <line id="Line_102" data-name="Line 102" x2="149" transform="translate(596.5 588.5)" fill="none" stroke="#141823" stroke-width="1"/>
      <line id="Line_103" data-name="Line 103" x2="149" transform="translate(596.5 629.5)" fill="none" stroke="#141823" stroke-width="1"/>
      <rect id="Rectangle_308" data-name="Rectangle 308" width="148.735" height="8" transform="translate(596.685 569.272)" fill="#e0dfdf"/>
      <rect id="Rectangle_309" data-name="Rectangle 309" width="148.735" height="8" transform="translate(596.685 610.272)" fill="#e0dfdf"/>
      <rect id="Rectangle_310" data-name="Rectangle 310" width="54" height="19" rx="9.5" transform="translate(753 692)" fill="#e0dfdf"/>
      <rect id="Rectangle_311" data-name="Rectangle 311" width="64" height="4" transform="translate(596.816 511)" fill="#e0dfdf"/>
      <path id="Path_146" data-name="Path 146" d="M14.238-13.184,10.055-9l4.184,4.184L13.184-3.762,9-7.945,4.816-3.762,3.762-4.816,7.945-9,3.762-13.184l1.055-1.055L9-10.055l4.184-4.184Z" transform="translate(797 521)" fill="#141823"/>
    </g>
    <line id="Line_124" data-name="Line 124" x2="261" transform="translate(578.5 471.5)" fill="none" stroke="#e9e9e9" stroke-width="1"/>
  </g>
</svg>
